HSET "codesystems.1.2.752.129.2.2.1.98" "1177.se" '{"code":"1177.se","name":"1177.se","parentOid":"1.2.752.129.2.2.1.98","codeDescription":"1177.se. Roller för 1177.se:    regionalRedaktör, granskare, nationellAdministratör, PrisAdmPrivat, PrisAdmFTV","extra1":" ","extra2":" ","extra3":" "}'
HSET "codesystems.1.2.752.129.2.2.1.98" "bif" '{"code":"bif","name":"bif","parentOid":"1.2.752.129.2.2.1.98","codeDescription":"Bastjänster för informationsförsörjning. Roller för BIF:Loggadministratör,  Spärradministratör, sms","extra1":" ","extra2":" ","extra3":" "}'
HSET "codesystems.1.2.752.129.2.2.1.98" "skrivInera" '{"code":"skrivInera","name":"skrivInera","parentOid":"1.2.752.129.2.2.1.98","codeDescription":"Ett system som används för att besvara och hantera anonyma frågor som ställs av användare/besökare på de tre webbplatserna www.1177.se, www.umo.se och www.hjalplinjen.se. Roller för skrivInera: svarareUMO, samordnareUMO, adminUMO, svarare1177,samordnare1177, admin1177, svarareNHL, samordnareNHL, adminNHL","extra1":" ","extra2":" ","extra3":" "}'
HSET "codesystems.1.2.752.129.2.2.1.98" "TGP" '{"code":"TGP","name":"TGP","parentOid":"1.2.752.129.2.2.1.98","codeDescription":"NPÖ använder detta prefix för hantering av Tillgänglig patient (TGP)","extra1":" ","extra2":" ","extra3":" "}'
HSET "codesystems.1.2.752.129.2.2.1.98" "SmiNet" '{"code":"SmiNet","name":"SmiNet","parentOid":"1.2.752.129.2.2.1.98","codeDescription":"Används av Folkhälsomyndighetens tjänst SmiNet för att hantera behörigheter för medarbetare inom landstingens smittskyddsenhet.","extra1":" ","extra2":" ","extra3":" "}'
HSET "codesystems.1.2.752.129.2.2.1.98" "INTYG" '{"code":"INTYG","name":"INTYG","parentOid":"1.2.752.129.2.2.1.98","codeDescription":"Används av Intygstjänster under en övergångsperiod för att hantera behörigheter på vårdgivarnivå i väntan på att vårdmedarbetaruppdrag på annan nivå än vårdenhet kan registreras i HSA och hämtas av Säkerhetstjänster","extra1":" ","extra2":" ","extra3":" "}'
HSET "codesystems.1.2.752.129.2.2.1.98" "iChem" '{"code":"iChem","name":"iChem","parentOid":"1.2.752.129.2.2.1.98","codeDescription":"iChemistry. En tjänst för hantering av kemikalier i en verksamhet som förvaltas av Intersolia AB","extra1":" ","extra2":" ","extra3":" "}'
HSET "codesystems.1.2.752.129.2.2.1.98" "EFK" '{"code":"EFK","name":"EFK","parentOid":"1.2.752.129.2.2.1.98","codeDescription":"eFrikort. En tjänst för hantering av frikort som förvaltas av CGI. Roller för EFK: Användare,Administratör,Superanvändare","extra1":" ","extra2":" ","extra3":" "}'
HSET "codesystems.1.2.752.129.2.2.1.98" "PU" '{"code":"PU","name":"PU","parentOid":"1.2.752.129.2.2.1.98","codeDescription":"Används av Ineras Personuppgiftstjänst för att avgöra vilka användare som har behörighet att t.ex. söka direkt i PU-tjänsten eller att administrera testdata.","extra1":" ","extra2":" ","extra3":" "}'
HSET "codesystems.1.2.752.129.2.2.1.98" "LiO" '{"code":"LiO","name":"LiO","parentOid":"1.2.752.129.2.2.1.98","codeDescription":"Regionala tjänster inom Östergötlands län som hanteras av Region Östergötland.","extra1":" ","extra2":" ","extra3":" "}'
HSET "codesystems.1.2.752.129.2.2.1.98" "LKL" '{"code":"LKL","name":"LKL","parentOid":"1.2.752.129.2.2.1.98","codeDescription":"Regionala tjänster inom Kalmar län som hanteras av Landstinget i Kalmar län.","extra1":" ","extra2":" ","extra3":" "}'
HSET "codesystems.1.2.752.129.2.2.1.98" "ROL" '{"code":"ROL","name":"ROL","parentOid":"1.2.752.129.2.2.1.98","codeDescription":"Regionala tjänster inom Örebro län som hanteras av Region Örebro län.","extra1":" ","extra2":" ","extra3":" "}'
HSET "codesystems.1.2.752.129.2.2.1.98" "VGR" '{"code":"VGR","name":"VGR","parentOid":"1.2.752.129.2.2.1.98","codeDescription":"Regionala tjänster inom Västra Götalands län som hanteras av Västra Götalandsregionen.","extra1":" ","extra2":" ","extra3":" "}'
HSET "codesystems.1.2.752.129.2.2.1.98" "RV" '{"code":"RV","name":"RV","parentOid":"1.2.752.129.2.2.1.98","codeDescription":"Regionala tjänster inom Västmanlands län som hanteras av Region Västmanland.","extra1":" ","extra2":" ","extra3":" "}'
HSET "codesystems.1.2.752.129.2.2.1.98" "LiV" '{"code":"LiV","name":"LiV","parentOid":"1.2.752.129.2.2.1.98","codeDescription":"Regionala tjänster inom Värmlands län som hanteras av Landstinget i Värmland (fr.o.m. 2019 Region Värmland)","extra1":" ","extra2":" ","extra3":" "}'
HSET "codesystems.1.2.752.129.2.2.1.98" "RJH" '{"code":"RJH","name":"RJH","parentOid":"1.2.752.129.2.2.1.98","codeDescription":"Regionala tjänster inom Jämtland Härjedalens län som hanteras av Region Jämtland Härjedalen","extra1":"Tillagd i verision 1.1 efter beslut i HSA Policygrupp 2019-03-20","extra2":"","extra3":""}'
SAVE
